COUNTRY;PD;UA;CI;MAS;LTO
;;;;;
Argentina;49;86;46;56;20
Australia;36;51;90;61;31
Austria ;11;70;55;79;31
Bangladesh ;80;60;20;55;40
Belgium;65;94;75;54;82
Belgium/French speakers;67;93;72;60;82
Brazil;69;76;38;49;44
Bulgaria ;70;85;30;40;69
Canada;54;60;73;45;30
Chile;63;86;23;28;31
China ;80;30;20;66;87
Colombia;67;80;13;64;13
Costa Rica;35;86;15;21;0
Czechia ;57;74;58;57;13
Denmark ;18;23;74;16;46
Ecuador;78;67;8;63;0
Estonia;40;60;60;30;82
Finland ;33;59;63;26;41
France ;68;86;71;43;39
Germany;35;65;67;66;31
Great Britain;35;35;89;66;25
Greece;60;100;35;57;45
Guatemala;95;99;6;37;0
Hong Kong;68;29;25;57;96
Hungary ;46;82;80;88;50
India;77;40;48;56;61
Indonesia;78;48;14;46;62
Ireland ;28;35;70;68;43
Iran;58;59;41;43;14
Israel;13;81;54;47;38
Italy ;50;75;76;70;34
Jamaica;45;13;39;68;0
Japan;54;92;46;95;80
Korea (South);60;85;18;39;75
Luxemburg ;40;70;60;50;64
Malaysia;100;36;26;50;41
Malta ;56;96;59;47;47
Mexico;81;82;30;69;24
Morocco ;70;68;46;53;14
Netherlands;38;53;80;14;44
New Zealand;22;49;79;58;30
Norway ;31;50;69;8;44
Pakistan;55;70;14;50;50
Panama;95;86;11;44;0
Peru;64;87;16;42;25
Philippines;94;44;32;64;19
Poland ;68;93;60;64;32
Portugal ;63;99;27;31;30
Romania ;90;90;30;42;52
Russia ;93;95;39;36;81
Singapore;74;8;20;48;48
South Africa;49;49;65;63;34
Slovakia;100;51;52;100;38
Spain ;57;86;51;42;19
Sweden;31;29;71;5;33
Switzerland ;34;58;68;70;40
Taiwan;58;69;17;45;87
Thailand;64;64;20;34;56
Trinidad ;47;55;16;58;13
Turkey;66;85;37;45;46
Uruguay ;61;100;36;38;26
United States;40;46;91;62;29
Venezuela;81;76;12;73;16
Vietnam ;70;30;20;40;80
West Africa ;77;54;2;46;16
Croatia ;73;80;33;40;58
Serbia ;86;92;25;43;52
Slovenia ;71;88;27;19;49
